lab06\pages\AccountPage.class
lab06\pages\NewDirPage.class
lab06\pages\LoginPage.class
lab06\steps\serenity\LoginSteps.class
lab06\steps\serenity\NewDirSteps.class
lab06\pages\DeleteDirPage.class
lab06\steps\serenity\EndUserSteps.class
lab06\features\search\package-info.class
lab06\steps\serenity\AccountSteps.class
lab06\steps\serenity\DeleteDirSteps.class
lab06\features\search\SearchByKeywordStory.class
lab06\features\search\ValidLoginTest.class
lab06\pages\DictionaryPage.class
