D:\POSTUNIVERSITAR\10-VVTA\LAB6-files\src\test\java\lab06\pages\AccountPage.java
D:\POSTUNIVERSITAR\10-VVTA\LAB6-files\src\test\java\lab06\pages\NewDirPage.java
D:\POSTUNIVERSITAR\10-VVTA\LAB6-files\src\test\java\lab06\steps\serenity\NewDirSteps.java
D:\POSTUNIVERSITAR\10-VVTA\LAB6-files\src\test\java\lab06\steps\serenity\DeleteDirSteps.java
D:\POSTUNIVERSITAR\10-VVTA\LAB6-files\src\test\java\lab06\steps\serenity\EndUserSteps.java
D:\POSTUNIVERSITAR\10-VVTA\LAB6-files\src\test\java\lab06\features\search\package-info.java
D:\POSTUNIVERSITAR\10-VVTA\LAB6-files\src\test\java\lab06\steps\serenity\LoginSteps.java
D:\POSTUNIVERSITAR\10-VVTA\LAB6-files\src\test\java\lab06\pages\DictionaryPage.java
D:\POSTUNIVERSITAR\10-VVTA\LAB6-files\src\test\java\lab06\features\search\SearchByKeywordStory.java
D:\POSTUNIVERSITAR\10-VVTA\LAB6-files\src\test\java\lab06\pages\DeleteDirPage.java
D:\POSTUNIVERSITAR\10-VVTA\LAB6-files\src\test\java\lab06\pages\LoginPage.java
D:\POSTUNIVERSITAR\10-VVTA\LAB6-files\src\test\java\lab06\steps\serenity\AccountSteps.java
D:\POSTUNIVERSITAR\10-VVTA\LAB6-files\src\test\java\lab06\features\search\ValidLoginTest.java
